<svg width="16" height="16" viewBox="0 0 16 16" fill="none" xmlns="http://www.w3.org/2000/svg">
<path d="M0.200013 5.60001C0.200013 8.57601 2.62401 11 5.60001 11C6.87201 11 8.04801 10.568 8.96001 9.82401L14.168 15.032L15.032 14.168L9.82401 8.96001C10.568 8.04801 11 6.87201 11 5.60001C11 2.62401 8.57601 0.200012 5.60001 0.200012C2.62401 0.200012 0.200013 2.62401 0.200013 5.60001ZM9.80001 5.60001C9.80001 7.92801 7.92801 9.80001 5.60001 9.80001C3.27201 9.80001 1.40001 7.92801 1.40001 5.60001C1.40001 3.27201 3.27201 1.40001 5.60001 1.40001C7.92801 1.40001 9.80001 3.27201 9.80001 5.60001Z" fill="black" fill-opacity="0.4"/>
</svg>
